<?xml version="1.0" encoding="utf-8"?>
<!-- Generator: Adobe Illustrator 19.2.0, SVG Export Plug-In . SVG Version: 6.00 Build 0)  -->
<svg version="1.1" id="Layer_1" xmlns="http://www.w3.org/2000/svg" xmlns:xlink="http://www.w3.org/1999/xlink" x="0px" y="0px"
	 viewBox="0 0 280 280" style="enable-background:new 0 0 280 280;" xml:space="preserve">
<style type="text/css">
	.st0{fill:#FFFFFF;}
	.st1{fill:#290088;}
	.st2{fill-rule:evenodd;clip-rule:evenodd;fill:#290088;}
</style>
<g id="XMLID_114_">
	<path id="XMLID_268_" class="st0" d="M140,279C63.4,279,1,216.6,1,140C1,63.4,63.4,1,140,1c76.6,0,139,62.4,139,139
		C279,216.6,216.6,279,140,279z"/>
	<path id="XMLID_138_" class="st1" d="M280,140c0,77.3-62.7,140-140,140C62.7,280,0,217.3,0,140C0,62.7,62.7,0,140,0
		C217.3,0,280,62.7,280,140z M240.3,140c0-55.3-45-100.3-100.3-100.3c-55.3,0-100.3,45-100.3,100.3c0,55.3,45,100.3,100.3,100.3
		C195.3,240.3,240.3,195.3,240.3,140z"/>
	<g>
		<path class="st0" d="M13.6,102.6c0.9-3.2,3-5.3,4.9-6.4l2.2,3.8c-1.3,0.9-2.3,1.8-2.9,3.8c-1,3.6,0.9,6.9,5.3,8.1
			c4.5,1.3,7.7-0.2,8.9-4.5c0.3-1,0.3-2,0.1-2.7l-3.7-1.1l-1.1,3.9l-4-1.1l2.4-8.5l10,2.8c1,2.1,1.3,5.3,0.4,8.5
			c-1.8,6.3-7.1,10.2-14.4,8.1C14.6,115.2,11.8,108.9,13.6,102.6z"/>
		<path class="st0" d="M20,86.2l4.2-7.8c2.5-4.6,6.1-7.5,10.9-4.9c4.7,2.5,4.7,7.4,2.3,12l-1.6,3l6.8,3.6l-2.6,4.8L20,86.2z
			 M33.6,83.8c1.4-2.7,1-4.5-1.1-5.6c-2.1-1.1-3.6-0.1-4.9,2.4l-1.4,2.7l6,3.2L33.6,83.8z"/>
		<path class="st0" d="M62.4,64.3l-9.2-2.1l-2,2.2l6,5.5l-3.7,4L36.8,58.7l5.9-6.4c3.5-3.8,7.5-5.7,11.5-2.1
			c2.5,2.2,2.9,4.9,1.9,7.6l10.4,2.1L62.4,64.3z M48.2,61.7l1.9-2.1c1.9-2.1,2.1-4,0.5-5.5c-1.6-1.5-3.3-0.9-5.2,1.2l-1.9,2.1
			L48.2,61.7z"/>
		<path class="st0" d="M55.9,39.5l12.2-9l2.6,3.5l-7.8,5.8l2.7,3.7l6.6-4.9l2.5,3.4L68,46.8l3.1,4.2l8.1-6l2.6,3.5l-12.5,9.2
			L55.9,39.5z"/>
		<path class="st0" d="M84.9,21c2.7-1.3,5.6-1.1,7.7-0.4l-1.3,4.2c-1.6-0.4-2.9-0.5-4.4,0.2c-3,1.5-4.2,5.1-2.3,9.2
			c2,4.2,5.3,5.6,8.5,4.1c1.8-0.8,2.7-2.2,3.3-3.8l4.1,1.5c-0.9,2.8-2.8,5-5.5,6.3c-5.7,2.7-12,1.3-15.3-5.5
			C76.3,30,79.2,23.7,84.9,21z"/>
		<path class="st0" d="M100.3,26.8c-1.8-7.2,1.5-12.4,7.9-13.9c6.3-1.6,11.7,1.5,13.5,8.7c1.8,7.2-1.5,12.6-7.8,14.1
			C107.5,37.2,102.1,34,100.3,26.8z M116.2,22.9c-1.1-4.4-3.7-6.5-7-5.7c-3.2,0.8-4.6,3.9-3.5,8.3c1.1,4.4,3.8,6.7,7,5.9
			C116,30.6,117.3,27.3,116.2,22.9z"/>
		<path class="st0" d="M128.6,9.4l5.8,0l4,10.2l1.5,4l0.1,0l1.4-4l3.9-10.2l5.8,0l0,22.7H146v-8.3c0-2.2,0.4-5.5,0.7-7.7h-0.1
			l-2,5.2l-3.7,8.8l-2.2,0l-3.7-8.8l-1.9-5.3l-0.1,0c0.3,2.2,0.7,5.5,0.7,7.7l0,8.3l-5,0V9.4z"/>
		<path class="st0" d="M161.8,10.8l5.6,1.4l1.4,10.9l0.4,4.2l0.1,0l2.4-3.5l6.3-8.9l5.6,1.4l-5.6,21.9l-4.9-1.2l2.1-8
			c0.5-2.2,1.8-5.2,2.6-7.3l-0.1,0l-3.2,4.6l-5.8,7.6l-2.1-0.5l-1.4-9.4l-0.6-5.6l-0.1,0c-0.3,2.2-0.7,5.5-1.3,7.6l-2.1,8l-4.8-1.2
			L161.8,10.8z"/>
		<path class="st0" d="M193.2,20.4l13.5,6.8l-2,3.8l-8.6-4.4l-2.1,4.1l7.3,3.7l-1.9,3.8l-7.3-3.7l-2.4,4.6l9,4.6l-2,3.8l-13.8-7
			L193.2,20.4z"/>
		<path class="st0" d="M214.8,32.2l4.4,3.5l-2.1,12.7l-1.3,5.4L216,54c1.3-2,3-4.8,4.6-6.9l5-6.3l4.1,3.2l-14.1,17.7l-4.4-3.5
			l2.1-12.8l1.2-5.4l-0.1-0.1c-1.4,2.1-2.9,4.7-4.6,6.8l-5,6.3l-4.1-3.2L214.8,32.2z"/>
		<path class="st0" d="M236.9,51.3l4.3,5.3c4.7,5.7,5,11.6-1.1,16.5c-6.1,4.9-11.9,3.5-16.4-2l-4.5-5.5L236.9,51.3z M226.5,68
			c2.6,3.2,5.8,4.2,10,0.7c4.2-3.4,3.8-6.6,1.2-9.8l-0.7-0.8l-11.2,9.1L226.5,68z"/>
		<path class="st0" d="M253.4,73.5l7,13.4l-3.8,2l-4.5-8.6l-4,2.1l3.8,7.3l-3.8,2l-3.8-7.3l-4.6,2.4l4.7,8.9l-3.8,2L233.3,84
			L253.4,73.5z"/>
		<path class="st0" d="M264.1,95.9l1.9,6.6c2,7.1,0,12.6-7.5,14.7c-7.5,2.1-12.3-1.4-14.2-8.2l-1.9-6.8L264.1,95.9z M248.1,107.2
			c1.1,4,3.7,6.1,8.9,4.6c5.2-1.5,6.1-4.6,4.9-8.5l-0.3-1l-13.8,4L248.1,107.2z"/>
	</g>
	<g>
		<path class="st0" d="M87.4,235.6L95,239c4.6,2.1,7.6,4.8,5.8,8.8c-0.8,1.8-2.8,3.3-5.7,2.8l-0.1,0.1c2.9,2,3.8,4.2,2.6,7
			c-1.9,4.2-6.5,4.4-11.3,2.2l-8.2-3.7L87.4,235.6z M87.5,256.2c2.7,1.2,4.5,0.9,5.4-1c0.8-1.8-0.2-3.2-2.9-4.4l-2.8-1.3l-2.4,5.4
			L87.5,256.2z M91,247.3c2.4,1.1,3.9,0.6,4.6-1c0.7-1.6-0.1-2.7-2.5-3.7l-2.4-1.1l-2.1,4.7L91,247.3z"/>
		<path class="st0" d="M115.8,269.2l-2.8-9l-2.9-0.7l-1.8,8l-5.3-1.2l4.9-22.1l8.5,1.9c5,1.1,8.7,3.6,7.6,8.9
			c-0.7,3.3-2.9,5-5.6,5.5l3.4,10L115.8,269.2z M111,255.6l2.8,0.6c2.8,0.6,4.6-0.2,5-2.3c0.5-2.2-0.9-3.3-3.7-3.9l-2.8-0.6
			L111,255.6z"/>
		<path class="st0" d="M142.4,266.1L135,266l-1.6,5.4l-5.6-0.1l7.9-22.5l6.6,0.1l7.2,22.7l-5.8-0.1L142.4,266.1z M141.4,262
			l-0.5-2.1c-0.6-2.3-1.3-5-1.9-7.3l-0.1,0c-0.6,2.4-1.3,5-2,7.3l-0.6,2.1L141.4,262z"/>
		<path class="st0" d="M152.5,248.5l5.5-1.1l8.4,9.8l3.3,4.4l0.1,0c-0.7-2.3-1.7-5.4-2.3-8l-1.5-7.8l5.1-1l4.4,22.2l-5.5,1.1
			l-8.4-9.8l-3.3-4.4l-0.1,0c0.7,2.4,1.7,5.3,2.3,7.9l1.6,7.9l-5.1,1L152.5,248.5z"/>
		<path class="st0" d="M176.3,243.1l6.3-2.7c6.8-3,12.5-1.7,15.6,5.4c3.1,7.1,0.2,12.4-6.3,15.2l-6.5,2.9L176.3,243.1z M189.7,257.5
			c3.8-1.6,5.5-4.5,3.4-9.4c-2.2-5-5.4-5.4-9.1-3.7l-0.9,0.4l5.8,13.2L189.7,257.5z"/>
		<path class="st0" d="M202.3,240.5l-0.2-4.2l-4.3,0.8l-0.7-2.6l4-1.7l-1.9-3.7l2.4-1.6l2.7,3.2l3.1-3.1l2.1,1.6l-2.4,3.6l3.8,1.8
			l-1,2.5l-4.2-0.9l-0.8,4.2H202.3z"/>
	</g>
	<g>
		<path class="st1" d="M86.7,59.7h9.2l10.3,19.7l3.9,8.8h0.2c-0.4-4.2-1.1-9.8-1.1-14.5v-14h8.5v39.6h-9.2L98.2,79.6L94.3,71h-0.2
			c0.4,4.4,1.1,9.7,1.1,14.3v14h-8.5V59.7z"/>
		<path class="st1" d="M138.6,68.5c7.6,0,14.6,5.8,14.6,15.8s-7.1,15.8-14.6,15.8c-7.7,0-14.7-5.8-14.7-15.8S131,68.5,138.6,68.5z
			 M138.6,92.9c3.6,0,5.5-3.3,5.5-8.6c0-5.2-1.9-8.6-5.5-8.6c-3.7,0-5.5,3.3-5.5,8.6C133.1,89.5,134.9,92.9,138.6,92.9z"/>
		<path class="st1" d="M163.1,88.8c3.1,0,5.4,2.4,5.4,5.7c0,3.2-2.3,5.6-5.4,5.6s-5.4-2.4-5.4-5.6C157.7,91.3,160,88.8,163.1,88.8z"
			/>
		<path class="st1" d="M176,92.1h8.4V69.8h-7.2v-5.5c4.2-0.8,6.9-1.9,9.6-3.5h6.6v31.4h7.2v7.2H176V92.1z"/>
	</g>
	<path id="XMLID_115_" class="st2" d="M138.8,213.3l0-3.8c2.4,1.4,2.8,3.1,1,5.5C139.4,214.5,139.1,213.9,138.8,213.3L138.8,213.3z
		 M141,221.9c-0.7-0.3-1.4-0.7-2.1-1.1l0.1,6.7c0.1,3.5,0.4,5.9,0.9,7.7c0.5-1.8,0.9-4.2,0.9-7.7L141,221.9L141,221.9z M141.4,199.1
		c-0.8-0.2-1.7-0.4-2.9-0.6l0,1c0.5,0.3,1,0.6,1.6,1l1.3-0.7V199.1L141.4,199.1z M141.7,185.9c-1.1-0.4-2.3-0.8-3.4-1.2l0.1,5.7
		c1,0.2,2.1,0.4,3.2,0.6L141.7,185.9L141.7,185.9z M142,169.4c-1.3-0.4-2.7-0.7-4-1.1l0.1,6.5c1.2,0.4,2.5,0.9,3.8,1.3L142,169.4
		L142,169.4z M142.8,124.6c2.8-1.1,4.8-3.9,4.8-7.1c0-4.2-3.4-7.6-7.7-7.6c-4.2,0-7.6,3.4-7.6,7.6c0,3.2,2,6,4.8,7.1l0.6,32.6
		c1.5,0.5,3,1,4.4,1.4L142.8,124.6L142.8,124.6z M143.2,158.8c3.5,1.1,6.9,2.3,10.3,3.7c3.1-1.5,5.9-3.3,8.2-5.8
		c5.1-5.4,6.5-12.6,1.1-19.2c-3-3.6-7.6-6.5-12.1-3.9c-2.7,1.6-7.5,5.1-6.2,7.1c0.8,1.3,4.2,1.6,6.8,1.7c3.5,0.2,7.1-1.6,7.4,3.6
		C159,151.9,150.5,156.2,143.2,158.8L143.2,158.8z M142.6,191c3,0.6,5.8,1.7,7.6,3.8c6-4.3,3.4-11.4-1.5-14.2
		c-4.1-2.3-10.3-4.1-14.7-5.7c-8.9-3.3-2.1-6.2,2.9-6.7c-3.3-0.9-7-2.1-10.2-3.2c-2.6,1.6-4.5,3.5-4.6,5.8c-0.4,5.1,4.4,8.6,8.5,9.9
		c2.6,0.8,6.8,2.4,10.1,3.5C146.4,186,150.6,188.9,142.6,191L142.6,191z M140.8,216.4c0.5,0.7,1.1,1.3,1.8,2c4.8-4,7.3-11,1.4-14.4
		c-3.7-2.1-9.6-4.1-6.4-5.7c-2.3-0.4-4.7-0.9-7-1.6c-0.3,0.7-0.3,1.6-0.2,2.6c0.7,6.2,4.5,6.2,9.1,8.7
		C143.1,210,143.3,212.8,140.8,216.4L140.8,216.4z M135.6,221.3c1.1,0,2.1-0.2,3.2-0.6c-0.4-0.3-0.9-0.6-1.3-0.9
		C136.9,220.3,136.3,220.8,135.6,221.3L135.6,221.3z M151.1,179.9c-2.7-1.4-5.8-2.6-9-3.7c1.4-0.5,2.7-0.9,3.8-1.4
		c5.6-2.1,6.2-4,2.6-5.3c-10-3.5-22.6-4.8-30.2-12.9c-5.1-5.4-6.5-12.6-1.1-19.2c3-3.6,7.6-6.5,12.1-3.9c2.7,1.6,7.5,5.1,6.2,7.1
		c-0.8,1.3-4.2,1.6-6.8,1.7c-3.5,0.2-7.2-1.6-7.5,3.6c-0.5,8.7,17.4,13.1,24,15.4c6.1,2.1,12.3,5,12.6,9.3
		C158.3,175.1,154.7,178.3,151.1,179.9L151.1,179.9z M146.6,204.6c2.7-1.6,4.8-6.5,1.8-9.6c-2.3-2.3-6.7-2.8-9.8-3.5
		c-8.5-1.9-5.9-4.9-0.8-6.9c-2.8-1-5.7-2-8.2-2.8c-3.6,3.2-5.2,8.9-0.9,12.2c2.4,1.9,6.3,2.6,9.8,3.2c6.4,1.1,5.6,2.5,2.9,4
		C143.3,202.2,145.3,203,146.6,204.6L146.6,204.6z M144.4,221.3c-6.9-4.7-8.1-9.9-5.9-11.9c-1.9-1.1-3.7-2-5.2-2.9
		C130.2,212.2,137.6,221.3,144.4,221.3L144.4,221.3z M158.4,116.9c1.4,6.4-8,9.8-11.1,9.4c1.3,4.5,8.8,6.6,14.6,0.9
		c3.7,5,11.1,28.1,21.6,22.7c-6.4-9.7-14.5-17.7-19.3-25.1c5.8,2.1,21.3,30.5,30.8,19.1c-12.7-9.2-20.5-14.6-29.1-22.3
		c7.7,0.1,33.3,30.7,42.7,14.9c-19.2-8.6-30.8-12.7-41.5-18.7c9.7-0.8,51,27.3,54.6,10c-16.4-4.3-42.8-10.2-53.5-13.7
		c12.2-2.3,58.3,19.8,63.2,0.8C203.9,114.5,155.5,99.8,158.4,116.9L158.4,116.9z M121.7,116.9c2.8-17.1-45.6-2.3-73.1-1.9
		c4.9,19,50.9-3,63.2-0.8c-10.6,3.5-37.1,9.4-53.5,13.7c3.7,17.3,44.9-10.9,54.6-10c-10.7,6-22.2,10.1-41.5,18.7
		c9.4,15.8,35-14.8,42.7-14.9c-8.6,7.7-16.4,13.1-29.1,22.3c9.5,11.4,25.1-17,30.8-19.1c-4.8,7.4-12.9,15.4-19.3,25.1
		c10.5,5.3,17.9-17.8,21.6-22.7c5.8,5.7,13.3,3.6,14.6-0.9C129.7,126.7,120.3,123.3,121.7,116.9L121.7,116.9z"/>
</g>
</svg>
